<?xml version="1.0" encoding="UTF-8"?>
<svg width="35.774mm" height="27.238mm" version="1.1" viewBox="0 0 35.77409 27.238287" xmlns="http://www.w3.org/2000/svg" xmlns:cc="http://creativecommons.org/ns#" xmlns:dc="http://purl.org/dc/elements/1.1/" xmlns:rdf="http://www.w3.org/1999/02/22-rdf-syntax-ns#">
<metadata>
<rdf:RDF>
<cc:Work rdf:about="">
<dc:format>image/svg+xml</dc:format>
<dc:type rdf:resource="http://purl.org/dc/dcmitype/StillImage"/>
<dc:title/>
</cc:Work>
</rdf:RDF>
</metadata>
<g transform="translate(20.174 -184.98)">
<path d="m-10.301 184.98c-4.7876 0-7.4271 2.528-8.6562 4.9863-1.2291 2.4583-1.2168 4.8887-1.2168 4.8887s-0.01235 2.4324 1.2168 4.8906c1.2292 2.4583 3.8686 4.9843 8.6562 4.9844 1.4962 0 1.998 0.6152 2.3398 1.2988s0.35352 1.3945 0.35352 1.3945-0.011701 0.7109-0.35352 1.3945c-0.34181 0.68364-0.84363 1.2988-2.3398 1.2988v1.7949c2.0946 0 3.3894-1.1792 3.9453-2.291 0.55588-1.1118 0.54297-2.1973 0.54297-2.1973s0.01291-1.0855-0.54297-2.1973c-0.55588-1.1118-1.8508-2.291-3.9453-2.291-4.1893-3e-5 -6.0357-1.962-7.0508-3.9922-1.0151-2.0301-1.0273-4.0879-1.0273-4.0879s0.01226-2.0558 1.0273-4.0859c1.0151-2.0302 2.8615-3.9922 7.0508-3.9922 4.1893 0 6.0377 1.962 7.0527 3.9922 1.0151 2.0302 1.0273 4.0859 1.0273 4.0859h1.7949s0.012352-2.4304-1.2168-4.8887c-1.2291-2.4583-3.8706-4.9863-8.6582-4.9863z" color="#000000" color-rendering="auto" dominant-baseline="auto" image-rendering="auto" shape-rendering="auto" solid-color="#000000" style="font-feature-settings:normal;font-variant-alternates:normal;font-variant-caps:normal;font-variant-ligatures:normal;font-variant-numeric:normal;font-variant-position:normal;isolation:auto;mix-blend-mode:normal;shape-padding:0;text-decoration-color:#000000;text-decoration-line:none;text-decoration-style:solid;text-indent:0;text-orientation:mixed;text-transform:none;white-space:normal"/>
<g stroke-width=".26458" aria-label="EAR">
<path d="m-3.9688 204.4h5.3446v-0.71967h-4.5297v-2.667h2.9316v-0.70908h-2.9316v-2.5929h4.4873v-0.71966h-5.3022z"/>
<path d="m1.9685 204.4h0.84667l0.94192-2.3283h3.4925l0.93133 2.3283h0.889l-3.0374-7.4083h-0.98425zm2.0743-3.0268 1.4711-3.6195 1.4499 3.6195z"/>
<path d="m9.9271 204.4h0.81492v-3.1856h2.3707l1.5875 3.1856h0.89958l-1.6616-3.2914c0.96308-0.27516 1.5769-1.016 1.5769-1.9897 0-1.2806-0.96308-2.1272-2.413-2.1272h-3.175zm3.1221-6.6781c0.99483 0 1.651 0.55033 1.651 1.397 0 0.85725-0.65617 1.4076-1.651 1.4076h-2.3072v-2.8046z"/>
</g>
<path d="m-8.2021 207.44a1.9844 1.9844 0 0 1 -1.9844 1.9844 1.9844 1.9844 0 0 1 -1.9844 -1.9844 1.9844 1.9844 0 0 1 1.9844 -1.9844 1.9844 1.9844 0 0 1 1.9844 1.9844z"/>
<path d="m-10.629 188.26c-3.2003 0-5.0485 1.7318-5.8809 3.3965-0.83233 1.6646-0.82031 3.3027-0.82031 3.3027s-0.01201 1.6381 0.82031 3.3027c0.83233 1.6647 2.6805 3.3984 5.8809 3.3984v-1.7949c-2.602 0-3.6571-1.1697-4.2754-2.4062s-0.63086-2.5-0.63086-2.5 0.0126-1.2635 0.63086-2.5c0.61826-1.2365 1.6734-2.4043 4.2754-2.4043z" color="#000000" color-rendering="auto" dominant-baseline="auto" image-rendering="auto" shape-rendering="auto" solid-color="#000000" style="font-feature-settings:normal;font-variant-alternates:normal;font-variant-caps:normal;font-variant-ligatures:normal;font-variant-numeric:normal;font-variant-position:normal;isolation:auto;mix-blend-mode:normal;shape-padding:0;text-decoration-color:#000000;text-decoration-line:none;text-decoration-style:solid;text-indent:0;text-orientation:mixed;text-transform:none;white-space:normal"/>
<g stroke-width=".067056" aria-label="editicalu archlinux repository">
<path d="m-2.6679 207.16-0.12338-0.13143c-0.091196 0.0778-0.23067 0.12338-0.37015 0.12338-0.26554 0-0.47475-0.1958-0.50426-0.46134h1.1024v-0.0617c0-0.38624-0.27895-0.69201-0.63569-0.69201-0.37015 0-0.66251 0.30577-0.66251 0.69201 0 0.39429 0.30309 0.69738 0.69202 0.69738 0.19312 0 0.35137-0.0536 0.50158-0.16629zm-0.53645-1.0488c0.22263 0 0.4077 0.1824 0.44257 0.42111h-0.89855c0.037551-0.24676 0.22263-0.42111 0.45598-0.42111z"/>
<path d="m-1.2356 207.31h0.1958v-1.9232l-0.19849 0.0456v0.6652c-0.1207-0.0993-0.27359-0.15289-0.42916-0.15289-0.38356 0-0.6786 0.30309-0.6786 0.69201 0 0.39161 0.29773 0.6947 0.67592 0.6947 0.16898 0 0.31919-0.0563 0.43452-0.16361zm-0.91464-0.67592c0-0.29504 0.21726-0.51499 0.4989-0.51499 0.1663 0 0.31919 0.0697 0.41306 0.18508v0.66519c-0.093878 0.11802-0.24408 0.18776-0.41306 0.18776-0.28163 0-0.4989-0.22799-0.4989-0.52304z"/>
<path d="m-0.60256 205.7c0.075102 0 0.13411-0.0617 0.13411-0.13411 0-0.0751-0.059009-0.13411-0.13411-0.13411-0.07242 0-0.13411 0.059-0.13411 0.13411 0 0.0724 0.061691 0.13411 0.13411 0.13411zm0.099242 0.2575h-0.19849v1.3438h0.19849z"/>
<path d="m9.3994e-4 207.01c0 0.2119 0.12875 0.32455 0.3621 0.32455 0.077785 0 0.1663-0.0107 0.23604-0.0349v-0.17434c-0.067056 0.0268-0.1207 0.0349-0.1958 0.0349-0.14752 0-0.20653-0.0563-0.20653-0.20117v-0.82344h0.40502v-0.16898h-0.40502v-0.39161l-0.1958 0.051v0.34065h-0.28968v0.16898h0.28968z"/>
<path d="m0.9129 205.7c0.075102 0 0.13411-0.0617 0.13411-0.13411 0-0.0751-0.059009-0.13411-0.13411-0.13411-0.07242 0-0.13411 0.059-0.13411 0.13411 0 0.0724 0.061691 0.13411 0.13411 0.13411zm0.099243 0.2575h-0.19849v1.3438h0.19849z"/>
<path d="m1.9777 207.15c-0.27627 0-0.49353-0.2253-0.49353-0.51767 0-0.28699 0.21458-0.51498 0.49085-0.51498 0.14484 0 0.28968 0.0617 0.39697 0.17434l0.12606-0.14484c-0.13948-0.13411-0.32991-0.2119-0.52572-0.2119-0.38356 0-0.68397 0.30846-0.68397 0.69738 0 0.39161 0.30041 0.69738 0.68397 0.69738 0.19312 0 0.37819-0.0778 0.52035-0.21457l-0.12338-0.13412c-0.11534 0.11266-0.24677 0.16898-0.39161 0.16898z"/>
<path d="m3.1499 207.33c0.16898 0 0.31382-0.051 0.43452-0.15557v0.13143h0.19312v-0.90391c0-0.30041-0.19044-0.46671-0.53108-0.46671-0.16362 0-0.32187 0.0402-0.51499 0.13412l0.075102 0.15288c0.16093-0.0832 0.28968-0.11802 0.42111-0.11802 0.23335 0 0.35674 0.10998 0.35674 0.32455v0.17703c-0.11534-0.059-0.25213-0.0912-0.39429-0.0912-0.32991 0-0.53645 0.15825-0.53645 0.41038 0 0.2414 0.20117 0.40501 0.49621 0.40501zm-0.30577-0.41038c0-0.15825 0.13679-0.26017 0.35137-0.26017 0.15557 0 0.27895 0.0322 0.38892 0.10729v0.25213c-0.10729 0.10728-0.23872 0.15556-0.39965 0.15556-0.20117 0-0.34064-0.1046-0.34064-0.25481z"/>
<path d="m4.3086 205.38-0.19849 0.0456v1.8776h0.19849z"/>
<path d="m4.837 205.96h-0.1958v0.85026c0 0.30846 0.2119 0.52036 0.52035 0.52036 0.17434 0 0.3165-0.0617 0.42111-0.1824v0.15557h0.19849v-1.3438h-0.19849v0.98706c-0.080467 0.13411-0.20921 0.20921-0.37015 0.20921-0.23067 0-0.37551-0.14752-0.37551-0.38624z"/>
<path d="m-3.376 209.5c0.16898 0 0.31382-0.051 0.43452-0.15557v0.13143h0.19312v-0.90391c0-0.30041-0.19044-0.46671-0.53108-0.46671-0.16362 0-0.32187 0.0402-0.51499 0.13411l0.075102 0.15289c0.16093-0.0831 0.28968-0.11802 0.42111-0.11802 0.23335 0 0.35674 0.10997 0.35674 0.32455v0.17703c-0.11534-0.059-0.25213-0.0912-0.39429-0.0912-0.32991 0-0.53645 0.15825-0.53645 0.41038 0 0.2414 0.20117 0.40502 0.49621 0.40502zm-0.30577-0.41038c0-0.15825 0.13679-0.26018 0.35137-0.26018 0.15557 0 0.27895 0.0322 0.38892 0.10729v0.25213c-0.10729 0.10729-0.23872 0.15557-0.39965 0.15557-0.20117 0-0.34064-0.10461-0.34064-0.25481z"/>
<path d="m-2.4157 209.48h0.19849v-0.92001c0.069738-0.1797 0.1958-0.27626 0.3621-0.27626 0.045598 0 0.091196 8e-3 0.13948 0.0241v-0.1824c-0.040234-0.0134-0.075103-0.0188-0.12606-0.0188-0.16362 0-0.29505 0.0805-0.37551 0.21994v-0.19044h-0.19849z"/>
<path d="m-0.95661 209.32c-0.27627 0-0.49353-0.22531-0.49353-0.51767 0-0.287 0.21458-0.51499 0.49085-0.51499 0.14484 0 0.28968 0.0617 0.39697 0.17435l0.12606-0.14484c-0.13948-0.13412-0.32991-0.2119-0.52572-0.2119-0.38356 0-0.68397 0.30846-0.68397 0.69738 0 0.39161 0.30041 0.69738 0.68397 0.69738 0.19312 0 0.37819-0.0778 0.52035-0.21458l-0.12338-0.13411c-0.11534 0.11265-0.24677 0.16898-0.39161 0.16898z"/>
<path d="m-0.20828 209.48h0.19849v-0.98974c0.080467-0.13143 0.20921-0.20653 0.37015-0.20653 0.23067 0 0.37551 0.14752 0.37551 0.38624v0.81003h0.1958v-0.85027c0-0.30845-0.2119-0.52035-0.51767-0.52035-0.17434 0-0.31919 0.0617-0.42379 0.18507v-0.73761l-0.19849 0.0456z"/>
<path d="m1.4628 207.55-0.19848 0.0456v1.8776h0.19848z"/>
<path d="m1.9 207.88c0.075103 0 0.13411-0.0617 0.13411-0.13411 0-0.0751-0.059009-0.13411-0.13411-0.13411-0.07242 0-0.13411 0.059-0.13411 0.13411 0 0.0724 0.061691 0.13411 0.13411 0.13411zm0.099243 0.25749h-0.19849v1.3438h0.19849z"/>
<path d="m2.3372 209.48h0.19849v-0.98974c0.080467-0.13143 0.20921-0.20653 0.37015-0.20653 0.23067 0 0.37551 0.14752 0.37551 0.38624v0.81003h0.1958v-0.85027c0-0.30845-0.2119-0.52035-0.51767-0.52035-0.17434 0-0.31919 0.0617-0.42379 0.18507v-0.15825h-0.19849z"/>
<path d="m3.9867 208.13h-0.1958v0.85027c0 0.30846 0.2119 0.52035 0.52035 0.52035 0.17434 0 0.3165-0.0617 0.42111-0.18239v0.15557h0.19848v-1.3438h-0.19848v0.98706c-0.080467 0.13411-0.20921 0.20922-0.37015 0.20922-0.23067 0-0.37551-0.14753-0.37551-0.38624z"/>
<path d="m5.1133 209.48h0.22531l0.41575-0.54718 0.41038 0.54718h0.23604l-0.53108-0.6947 0.49621-0.6491h-0.22799l-0.38088 0.50426-0.38088-0.50426h-0.23604l0.50158 0.65178z"/>
<path d="m-3.7998 211.65h0.19849v-0.92001c0.069738-0.17971 0.1958-0.27627 0.3621-0.27627 0.045598 0 0.091196 8e-3 0.13948 0.0241v-0.18239c-0.040233-0.0134-0.075102-0.0188-0.12606-0.0188-0.16362 0-0.29505 0.0805-0.37551 0.21995v-0.19044h-0.19849z"/>
<path d="m-1.8364 211.51-0.12338-0.13143c-0.091196 0.0778-0.23067 0.12338-0.37015 0.12338-0.26554 0-0.47475-0.1958-0.50426-0.46134h1.1024v-0.0617c0-0.38625-0.27895-0.69202-0.63569-0.69202-0.37015 0-0.66251 0.30577-0.66251 0.69202 0 0.39428 0.30309 0.69738 0.69202 0.69738 0.19312 0 0.35137-0.0537 0.50158-0.1663zm-0.53645-1.0488c0.22263 0 0.4077 0.18239 0.44257 0.42111h-0.89855c0.037551-0.24677 0.22263-0.42111 0.45598-0.42111z"/>
<path d="m-1.4555 212.2h0.19848v-0.68397c0.1207 0.0993 0.27091 0.15557 0.42916 0.15557 0.38356 0 0.6786-0.30309 0.6786-0.69469 0-0.38893-0.29505-0.69202-0.67592-0.69202-0.16898 0-0.31919 0.0563-0.43452 0.1663v-0.14484h-0.1958zm0.61155-1.7408c0.28163 0 0.49889 0.2253 0.49889 0.52035 0 0.29504-0.21458 0.51767-0.49889 0.51767-0.1663 0-0.31919-0.0697-0.41306-0.18507v-0.6652c0.093878-0.11802 0.24408-0.18775 0.41306-0.18775z"/>
<path d="m0.067992 210.98c0 0.39428 0.30309 0.70006 0.68665 0.70006 0.38088 0 0.68397-0.30578 0.68397-0.70006 0-0.39161-0.30309-0.69738-0.68397-0.69738-0.38356 0-0.68665 0.30577-0.68665 0.69738zm0.68665 0.52303c-0.27627 0-0.49085-0.23067-0.49085-0.52303 0-0.29237 0.21726-0.52036 0.49085-0.52036 0.27359 0 0.48817 0.22799 0.48817 0.52036 0 0.29236-0.21458 0.52303-0.48817 0.52303z"/>
<path d="m1.5781 211.46c0.14216 0.13411 0.34333 0.20922 0.56595 0.20922 0.30846 0 0.54449-0.17703 0.54449-0.41039 0-0.20653-0.13411-0.32723-0.40233-0.36478l-0.23335-0.0322c-0.17703-0.0268-0.24945-0.0831-0.24945-0.19848 0-0.13143 0.12606-0.22263 0.31114-0.22263 0.14752 0 0.28432 0.0483 0.43452 0.15021l0.10461-0.13411c-0.1663-0.1207-0.3326-0.17703-0.5284-0.17703-0.29505 0-0.50426 0.1663-0.50426 0.39161 0 0.20385 0.12875 0.32186 0.39697 0.3621l0.23335 0.0322c0.17166 0.0241 0.24945 0.0885 0.24945 0.20385 0 0.14216-0.1502 0.2414-0.36478 0.2414-0.15825 0-0.31382-0.0644-0.4372-0.1797z"/>
<path d="m3.0104 210.05c0.075102 0 0.13411-0.0617 0.13411-0.13411 0-0.0751-0.059009-0.13411-0.13411-0.13411-0.07242 0-0.13411 0.059-0.13411 0.13411 0 0.0724 0.061691 0.13411 0.13411 0.13411zm0.099242 0.2575h-0.19848v1.3438h0.19849z"/>
<path d="m3.6139 211.35c0 0.21189 0.12875 0.32455 0.3621 0.32455 0.077785 0 0.1663-0.0107 0.23604-0.0349v-0.17435c-0.067056 0.0268-0.1207 0.0349-0.1958 0.0349-0.14752 0-0.20653-0.0563-0.20653-0.20117v-0.82344h0.40502v-0.16898h-0.40502v-0.39161l-0.1958 0.051v0.34064h-0.28968v0.16898h0.28968z"/>
<path d="m4.322 210.98c0 0.39428 0.30309 0.70006 0.68665 0.70006 0.38088 0 0.68397-0.30578 0.68397-0.70006 0-0.39161-0.30309-0.69738-0.68397-0.69738-0.38356 0-0.68665 0.30577-0.68665 0.69738zm0.68665 0.52303c-0.27627 0-0.49085-0.23067-0.49085-0.52303 0-0.29237 0.21726-0.52036 0.49085-0.52036 0.27359 0 0.48817 0.22799 0.48817 0.52036 0 0.29236-0.21458 0.52303-0.48817 0.52303z"/>
<path d="m5.9689 211.65h0.19849v-0.92001c0.069738-0.17971 0.1958-0.27627 0.3621-0.27627 0.045598 0 0.091196 8e-3 0.13948 0.0241v-0.18239c-0.040233-0.0134-0.075102-0.0188-0.12606-0.0188-0.16362 0-0.29505 0.0805-0.37551 0.21995v-0.19044h-0.19849z"/>
<path d="m7.2376 211.82c-0.064374 0.14216-0.14752 0.20922-0.26822 0.20922-0.04828 0-0.077785-3e-3 -0.11265-0.0107v0.17971c0.029505 8e-3 0.075102 0.0134 0.12606 0.0134 0.21458 0 0.34064-0.10461 0.45598-0.36479l0.66788-1.545h-0.21458l-0.46939 1.1024-0.43452-1.1024h-0.21994l0.54718 1.3411z"/>
</g>
</g>
</svg>

